<?xml version="1.0" standalone="no"?>
<!DOCTYPE svg PUBLIC "-//W3C//DTD SVG 1.1//EN" "http://www.w3.org/Graphics/SVG/1.1/DTD/svg11.dtd" >
<svg xmlns="http://www.w3.org/2000/svg">
<metadata>Generated by IcoMoon</metadata>
<defs>
<font id="icomoon" horiz-adv-x="1024">
<font-face units-per-em="1024" ascent="960" descent="-64" />
<missing-glyph horiz-adv-x="1024" />
<glyph unicode="&#x20;" d="" horiz-adv-x="512" />
<glyph unicode="&#xe600;" d="M532.767 542.74c0-14.746-11.96-26.685-26.767-26.685h-240.763c-14.787 0-26.767 11.94-26.767 26.685 0 14.725 11.981 26.665 26.767 26.665h240.742c14.828 0 26.788-11.94 26.788-26.665zM673.014 558.981l134.287-120.156-284.733-316.682-134.246 120.156 284.692 316.682zM635.044 431.063l-0.86 0.758c-3.174 2.867-7.332 4.321-11.592 4.096-4.219-0.225-8.212-2.13-11.039-5.284l-152.801-170.004c-6.369-7.025-5.755-17.879 1.311-24.207 3.174-2.867 7.311-4.342 11.592-4.096 4.219 0.246 8.212 2.13 11.059 5.325l153.58 170.803c5.898 6.554 5.345 16.712-1.249 22.61zM666.767 492.175l-7.578-8.417c-2.806-3.154-4.301-7.332-4.076-11.571s2.13-8.233 5.304-11.059l0.881-0.778c3.174-2.826 7.332-4.28 11.592-4.055 4.239 0.225 8.212 2.13 11.059 5.284l18.268 20.337-12.82 11.469c-6.574 5.919-16.732 5.366-22.63-1.208zM685.978 573.46l134.267-120.156 32.973 36.659-134.246 120.156-32.993-36.659zM912.548 555.909l-47.186-52.49-134.267 120.136 47.268 52.49c6.205 7.025 15.094 11.244 24.515 11.735 9.421 0.532 18.657-2.744 25.661-9.011l81.306-72.806c14.561-13.066 15.79-35.492 2.703-50.053zM886.088 579.625l-81.265 72.786-23.552-26.132 81.306-72.806 23.511 26.153zM372.306 224.399l134.205-120.156-158.618-64.84c-6.103-2.478-13.087-1.27-18.002 3.113-4.936 4.444-6.861 11.203-5.059 17.531l47.473 164.352zM384.573 181.699l-18.145-62.874 35.471-31.785 60.641 24.74-77.967 69.919zM338.555 227.983l-15.667-54.231h-118.968c-33.485 0-60.662 27.095-60.662 60.498v439.951c0.020 33.403 27.156 60.518 60.662 60.518h73.912v4.362c0 12.329 10.035 22.323 22.364 22.323h18.596c-0.369 2.683-0.573 5.898-0.573 8.909 0 36.803 29.983 66.744 66.888 66.744 36.925 0 66.888-29.942 66.888-66.744 0-3.011-0.246-6.226-0.573-8.888h18.821c12.37 0 22.385-10.015 22.385-22.323v-4.362h72.11c33.485 0 60.662-27.116 60.662-60.518v-116.122l-53.494-59.494v150.18c0 17.531-14.234 31.724-31.785 31.724h-47.534v-30.126c0-12.308-10.035-22.323-22.364-22.323h-169.984c-12.37 0-22.364 10.015-22.364 22.323v30.126h-48.415c-17.572 0-31.805-14.213-31.805-31.724v-389.1c0-17.551 14.254-31.724 31.805-31.724l109.097 0.020zM358.38 770.314c0-3.113 0.573-6.226 1.536-8.909h50.401c1.004 2.683 1.556 5.775 1.556 8.909 0 14.725-12.001 26.706-26.747 26.706-14.766 0-26.747-11.981-26.747-26.706zM507.843 427.213l24.904 27.709c-0.348 14.438-12.165 26.44-26.747 26.44h-240.763c-14.787 0-26.767-12.37-26.767-27.136 0-14.725 11.981-27.116 26.767-27.116h240.742c0.635 0.041 1.27 0.082 1.864 0.102zM238.469 365.773c0-14.746 11.981-26.644 26.767-26.644h163.451l47.944 53.33h-211.395c-14.787 0-26.767-11.94-26.767-26.685z" />
<glyph unicode="&#xe601;" d="M649.093 696.3c-106.25 106.25-279.163 106.25-385.413 0-106.209-106.271-106.209-279.142 0-385.413 94.618-94.597 241.971-104.714 348.14-30.863 2.253-10.568 7.373-20.644 15.565-28.877l154.747-154.685c22.508-22.508 58.941-22.508 81.408 0 22.487 22.487 22.487 58.921 0 81.408l-154.747 154.726c-8.192 8.192-18.289 13.312-28.856 15.524 73.912 106.209 63.775 253.522-30.843 348.18zM600.248 359.731c-79.319-79.299-208.404-79.299-287.724 0-79.278 79.319-79.278 208.364 0 287.683 79.319 79.319 208.384 79.319 287.724 0 79.319-79.319 79.319-208.364 0-287.683z" />
<glyph unicode="&#xe602;" d="M308.92 492.175l10.65-49.807 52.9 26.071h0.799v-226.427h63.242v285.43h-54.211l-73.38-35.267zM640.492 408.678c-19.599 14.479-46.449 20.603-72.909 20.603-6.82 0-11.96-0.102-17.94-0.983l5.98 43.766h107.971v55.398h-153.17l-18.33-149.75c11.53 1.761 22.159 2.56 37.519 2.56 55.46 0 78.049-18.022 78.049-47.432 0-30.269-28.59-43.438-55.419-43.438-25.17 0-50.319 7.885-62.689 14.029l-11.53-50.012c15.36-8.315 43.52-16.241 77.189-16.241 74.629 0 118.989 46.94 118.989 100.004 0 33.321-12.78 57.016-33.71 71.496zM750.244 773.304v-34.816c0-35.103-27.976-64.143-62.075-64.143h-3.154c-34.099 0-62.382 29.061-62.382 64.143v39.444h-67.891v-39.424c0-35.103-28.283-64.143-62.382-64.143h-3.133c-34.14 0-62.116 29.061-62.116 64.143v39.424h-69.059v-39.424c0-35.103-27.361-64.143-61.46-64.143h-3.154c-34.12 0-61.829 29.061-61.829 64.143v34.263c-39.813-13.435-67.891-51.732-67.891-96.891v-453.898c0-56.361 44.237-101.622 99.041-101.622h457.626c54.784 0 98.918 45.261 98.918 101.622v453.919c0 45.732-29.266 84.46-69.059 97.403zM770.15 231.363c0-32.625-25.477-59.208-57.201-59.208h-442.757c-31.703 0-57.303 26.583-57.303 59.208v322.478c0 22.221 17.367 39.854 38.973 39.854h479.416c21.606 0 38.871-17.633 38.871-39.854v-322.478zM293.458 705.7h3.154c9.81 0 18.514 4.26 24.433 11.346 4.895 5.837 7.741 13.169 7.741 21.484v0 45.117c0 9.114-3.461 17.367-9.236 23.388-0.061 0.061-0.061 0.123-0.102 0.164s-0.061-0.184-0.082-0.143c-5.857 5.96-13.885 9.421-22.774 9.421h-3.154c-8.909 0-16.937-3.441-22.794-9.421-0.020-0.041-0.041 0.041-0.082 0.020-0.061-0.061-0.184-0.041-0.225-0.082-5.796-6.021-9.441-14.213-9.441-23.327v0-45.158c0-8.294 3.052-15.647 7.926-21.484 5.919-7.086 14.807-11.325 24.637-11.325zM470.753 711.004c0.061-0.041 0.225-0.082 0.266-0.102 0.082-0.061 0.266 0.123 0.348 0.061 5.12-3.482 11.284-5.263 17.879-5.263h3.154c5.55 0 10.752 1.188 15.299 3.727 0.041 0.020 0.082-0.082 0.143-0.061 0.102 0.061-0.020 0.061 0.082 0.143 9.912 5.693 16.404 16.527 16.404 29.041v45.117c0 10.834-4.813 20.46-12.616 26.542-0.061 0.041-0.020 0.102-0.061 0.143l0.061-0.266c-5.386 4.157-12.042 6.369-19.313 6.369h-3.154c-8.376 0-15.995-3.031-21.729-8.397-0.020 0-0.020 0.102-0.020 0.102-0.061-0.061-0.348-0.061-0.41-0.123-6.431-6.083-10.67-14.725-10.67-24.412v-45.158c-0.020-11.387 5.816-21.484 14.336-27.464zM685.015 705.7h3.154c9.83 0 18.801 4.26 24.781 11.346 4.895 5.837 8.069 13.169 8.069 21.484v0 45.117c0 12.595-7.025 23.532-17.039 29.225-0.082 0.020-0.225 0.061-0.266 0.082-0.799 0.451-1.659 0.84-2.499 1.208-0.143 0.061-0.287 0.123-0.41 0.184-0.205 0.082-0.389 0.143-0.614 0.246-0.307 0.123-0.594 0.246-0.901 0.348-0.164 0.061-0.307 0.102-0.471 0.164-0.348 0.123-0.696 0-1.024 0.102-3.052 0.963-6.287 1.27-9.646 1.27h-3.154c-1.679 0-3.092 0.102-4.69-0.143-15.565-2.437-27.238-16.015-27.238-32.686v-45.179c0-18.371 14.070-32.768 31.949-32.768z" />
<glyph unicode="&#xe603;" d="M208.63 250.88h-43.52c-12.022 0-21.75 9.728-21.75 21.77 0 12.022 9.728 21.75 21.75 21.75h43.52c12.022 0 21.75-9.728 21.75-21.75 0.020-12.042-9.708-21.77-21.75-21.77zM839.68 729.6v-522.24c0-48.067-38.973-87.040-87.040-87.040h-478.72c-48.067 0-87.040 38.973-87.040 87.040h21.75c36.004 0 65.29 29.286 65.29 65.29s-29.286 65.29-65.29 65.29h-21.75v261.12h21.75c36.004 0 65.29 29.286 65.29 65.29s-29.286 65.29-65.29 65.29h-21.75c0 48.067 38.973 87.040 87.040 87.040h478.72c48.067-0.041 87.040-39.014 87.040-87.081zM796.16 729.6c0 24.003-19.497 43.52-43.52 43.52h-391.68v-609.28h391.68c24.003 0 43.52 19.558 43.52 43.52v522.24zM165.11 642.56h43.52c12.022 0 21.75 9.728 21.75 21.75s-9.728 21.77-21.75 21.77h-43.52c-12.022 0-21.75-9.728-21.75-21.77 0-12.022 9.728-21.75 21.75-21.75zM730.89 729.6h-304.66c-12.022 0-21.75-9.728-21.75-21.75s9.728-21.75 21.75-21.75h304.64c12.022 0 21.75 9.728 21.75 21.75 0.020 12.022-9.708 21.75-21.729 21.75zM730.89 642.56h-304.66c-12.022 0-21.75-9.728-21.75-21.77 0-12.022 9.728-21.77 21.75-21.77h304.64c12.022 0 21.75 9.728 21.75 21.77 0.020 12.042-9.708 21.77-21.729 21.77zM730.89 555.52h-304.66c-12.022 0-21.75-9.728-21.75-21.77 0-12.022 9.728-21.75 21.75-21.75h304.64c12.022 0 21.75 9.728 21.75 21.75 0.020 12.042-9.708 21.77-21.729 21.77zM730.89 468.48h-304.66c-12.022 0-21.75-9.728-21.75-21.75s9.728-21.75 21.75-21.75h304.64c12.022 0 21.75 9.728 21.75 21.75 0.020 12.022-9.708 21.75-21.729 21.75zM730.89 381.44h-304.66c-12.022 0-21.75-9.728-21.75-21.77 0-12.022 9.728-21.75 21.75-21.75h304.64c12.022 0 21.75 9.728 21.75 21.75 0.020 12.042-9.708 21.77-21.729 21.77zM600.31 294.4h-174.080c-12.022 0-21.75-9.728-21.75-21.75s9.728-21.75 21.75-21.75h174.080c12.022 0 21.75 9.728 21.75 21.75 0.020 12.022-9.708 21.75-21.75 21.75z" />
<glyph unicode="&#xe604;" d="M502.026 408.474h-19.927c-10.342 0-18.719 8.294-18.719 18.514 0 3.809 1.536 7.434 4.28 10.056 11.592 11.162 21.32 26.153 28.385 42.312 1.434-1.044 2.97-1.802 4.71-1.802 11.182 0 24.33 24.453 24.33 41.124s-1.536 30.188-12.739 30.188c-1.331 0-2.724-0.225-4.157-0.573-0.799 45.199-12.329 101.581-82.104 101.581-72.827 0-81.285-56.279-82.125-101.437-1.024 0.205-2.048 0.43-3.011 0.43-11.203 0-12.739-13.517-12.739-30.188 0-16.65 13.128-41.124 24.33-41.124 1.393 0 2.662 0.389 3.871 1.085 7.045-15.872 16.65-30.597 28.058-41.595 2.744-2.642 4.28-6.287 4.28-10.076 0-10.24-8.397-18.493-18.719-18.493h-19.968c-42.619 0-77.169-34.181-77.169-76.349v-21.156c0-13.332 10.895-24.105 24.371-24.105h257.516c13.455 0 24.351 10.772 24.351 24.105v21.156c0.061 42.189-34.488 76.349-77.107 76.349zM733.061 617.882h-215.962c6.226-13.64 10.691-30.433 12.554-51.2 4.608-2.806 8.090-7.352 10.895-12.841h192.512c9.994 0 18.063 7.987 18.063 17.859v28.324c0 9.851-8.069 17.859-18.063 17.859zM733.061 501.187h-188.109c-5.1-19.067-17.674-39.035-35.082-44.36-0.512-0.942-1.106-1.782-1.659-2.724v-16.937h224.809c9.974 0 18.063 7.967 18.063 17.838v28.324c0.041 9.871-8.028 17.859-18.022 17.859zM733.061 384.492h-146.842c9.687-15.176 15.38-33.096 15.38-52.306v-11.735h131.461c9.994 0 18.063 7.967 18.063 17.859v28.344c0 9.851-8.069 17.838-18.063 17.838zM810.68 795.935h-597.299c-61.276 0-110.92-49.111-110.92-109.711v-435.63c0-60.58 49.644-109.711 110.92-109.711h597.279c61.256 0 110.899 49.111 110.899 109.711v435.651c0.020 60.6-49.623 109.691-110.879 109.691zM869.233 250.593c0-31.928-26.276-57.917-58.552-57.917h-597.299c-32.297 0-58.552 25.989-58.552 57.917v435.651c0 31.928 26.255 57.917 58.552 57.917h597.279c32.276 0 58.552-25.969 58.552-57.917l0.020-435.651z" />
<glyph unicode="&#xe605;" d="M806.584 393.4c-1.966 0.983-3.953 1.495-5.919 1.495-4.28 0-8.028-1.638-11.325-4.956l-31.539-31.642c-2.949-2.97-4.424-6.595-4.424-10.895v-125.645c0-21.77-7.7-40.387-23.142-55.89s-33.997-23.245-55.665-23.245h-409.805c-21.668 0-40.223 7.741-55.665 23.245s-23.142 34.12-23.142 55.89v411.566c0 21.77 7.721 40.407 23.142 55.91 15.442 15.503 33.997 23.245 55.665 23.245h409.825c7.229 0 14.623-0.983 22.159-2.97 1.966-0.655 3.441-0.983 4.424-0.983 4.28 0 8.049 1.638 11.325 4.936l24.146 24.248c3.932 3.953 5.407 8.745 4.424 14.336-0.983 5.284-3.932 9.073-8.868 11.387-17.736 8.233-36.946 12.37-57.631 12.37h-409.805c-39.076 0-72.499-13.926-100.25-41.8s-41.615-61.42-41.615-100.659v-411.566c0-39.24 13.865-72.786 41.615-100.659s61.174-41.82 100.25-41.82h409.805c39.076 0 72.499 13.926 100.25 41.82 27.75 27.873 41.636 61.42 41.636 100.659v157.307c0 6.902-3.297 11.674-9.871 14.316zM930.243 677.335l-54.19 54.415c-7.864 7.905-17.244 11.878-28.078 11.878s-20.193-3.953-28.078-11.878l-318.71-320.061-129.536 130.109c-7.885 7.926-17.244 11.878-28.078 11.878s-20.193-3.953-28.078-11.878l-54.19-54.415c-7.885-7.905-11.817-17.306-11.817-28.201 0-10.875 3.953-20.275 11.817-28.201l211.804-212.705c7.885-7.926 17.244-11.878 28.078-11.878s20.193 3.953 28.078 11.878l400.957 402.657c7.885 7.905 11.817 17.306 11.817 28.201 0.020 10.875-3.932 20.275-11.796 28.201z" />
<glyph unicode="&#xe606;" d="M830.792 476.918c12.616 14.336 11.387 36.332-2.724 49.091l-311.050 281.395c-14.111 12.759-36.741 12.493-50.565-0.594l-312.115-295.813c-13.824-13.107-14.5-35.062-1.495-49.029l7.823-8.417c12.984-13.967 33.956-15.647 46.838-3.727l23.327 21.586v-316.17c0-19.415 15.196-35.103 33.956-35.103h121.651c18.76 0 33.956 15.688 33.956 35.103v221.204h155.177v-221.204c-0.266-19.374 13.148-35.082 31.887-35.082h128.942c18.76 0 33.956 15.708 33.956 35.103v311.706c0 0 6.431-5.837 14.377-13.066 7.926-7.209 24.596-1.434 37.212 12.923l8.847 10.097z" />
<glyph unicode="&#xe607;" d="M445.583 470.323h-63.754c-7.639 0-14.889 0-21.811-0.614 7.229-42.353 39.342-151.327 177.91-152.904 2.273 0.512 4.588 0.451 6.799-0.164 23.040 0.020 139.039 8.97 167.158 148.808-14.111 3.338-30.085 4.874-48.148 4.874h-66.929c54.067 27.894 91.095 83.251 91.095 147.374 0 5.263-0.266 10.752-0.737 15.831h-94.31c13.804 14.213 23.265 32.604 26.194 53.002h53.821c-16.343 35.369-44.954 64-80.466 80.589-17.695 18.002-42.394 29.184-69.714 29.184-26.071 0-49.766-10.199-67.256-26.767-38.052-16.138-68.792-45.855-85.975-83.026h56.873c2.929-20.398 12.37-38.81 26.214-53.002h-97.362c-0.471-5.079-0.737-10.568-0.737-15.831-0.020-64.123 37.028-119.48 91.136-147.354zM522.691 769.454c38.687 0 70.144-31.109 70.144-69.386 0-38.236-31.478-69.325-70.144-69.325-38.707 0-70.185 31.068-70.185 69.325 0 38.298 31.478 69.386 70.185 69.386zM818.504 319.16c0 0 5.202 100.168-80.036 137.789-32.993-163.43-176.579-173.302-195.871-173.548-0.492-1.556-0.84-3.338-0.881-5.243-0.246-11.551 9.81-26.296 28.365-41.554 32.973-27.136 39.485-66.478 16.589-100.065-17.838-26.173-51.323-44.401-92.324-44.401-19.743 0-41.206 4.239-63.529 13.824-6.82-7.434-16.65-12.124-27.566-12.124-20.562 0-37.274 16.466-37.274 36.844 0 20.296 16.691 36.803 37.274 36.803 20.398 0 36.987-16.261 37.212-36.352 55.501-24.33 103.567-9.134 123.679 20.398 15.012 22.098 10.752 46.141-11.469 64.43-26.071 21.463-38.892 42.844-38.113 63.529 0.041 1.741 0.246 3.461 0.471 5.059-141.005 13.23-174.531 135.864-182.088 181.064-107.663-25.743-106.803-136.151-106.988-146.473l0.061-260.383h592.978l-0.492 260.403zM522.691 732.14c17.9 0 32.399-14.336 32.399-32.031s-14.5-32.031-32.399-32.031-32.399 14.336-32.399 32.031 14.5 32.031 32.399 32.031z" />
<glyph unicode="&#xe608;" d="M941.138 248.668c-0.86 1.004-2.13 1.597-3.461 1.597h-892.334c-1.331 0-2.601-0.573-3.461-1.597-0.881-1.004-1.27-2.355-1.065-3.666 0.123-0.84 13.599-83.722 118.047-83.722h665.272c104.468 0 117.924 82.883 118.047 83.722 0.225 1.331-0.164 2.662-1.044 3.666zM558.633 190.3h-134.226v30.966h134.226v-30.966zM138.035 282.501h706.949c10.22 0 18.514 8.315 18.514 18.575v435.548c0 10.24-8.294 18.575-18.514 18.575h-706.949c-10.22 0-18.514-8.315-18.514-18.575v-435.548c0-10.26 8.294-18.575 18.514-18.575zM184.32 690.196h614.38v-342.692h-614.38v342.692z" />
<glyph unicode="&#xe609;" d="M532.46 775.68c-103.096 0-195.727-44.81-259.461-116.040-55.153-61.604-88.678-142.95-88.678-232.12 0-192.287 155.873-348.16 348.14-348.16 182.927 0 332.902 141.046 347.075 320.348 0.737 9.175 1.106 18.452 1.106 27.812 0 192.287-155.873 348.16-348.18 348.16zM532.46 145.285c-155.873 0-282.235 126.362-282.235 282.235 0 72.315 27.197 138.26 71.905 188.191 51.671 57.713 126.771 94.044 210.33 94.044 155.894 0 282.235-126.362 282.235-282.235 0-9.277-0.451-18.493-1.352-27.566-13.804-142.93-134.287-254.669-280.883-254.669zM770.621 404.316c0.737 7.639 1.126 15.38 1.126 23.204 0 131.256-106.394 237.65-237.65 237.65-70.369 0-133.591-30.597-177.111-79.196-16.364-18.268-29.204-35.799-38.83-58.716-3.482-8.294-1.331-16.179 7.455-19.415l197.612-76.124c0 0 10.875-4.198 10.875-17.9 0-56.852 0-209.142 0-209.142-0.102-10.588 7.537-15.094 13.107-14.602 126.013 11.1 211.886 95.212 223.416 214.241z" />
<glyph unicode="&#xe60a;" d="M817.807 393.503c14.541 16.794 21.832 36.68 21.832 59.617 0 20.808-7.557 38.81-22.589 54.006-15.073 15.217-32.932 22.815-53.555 22.815h-109.896c1.065 3.727 2.109 6.943 3.174 9.605 1.044 2.662 2.519 5.612 4.362 8.806s3.174 5.612 3.973 7.188c4.751 9.073 8.397 16.548 10.916 22.405 2.519 5.878 5.018 13.865 7.537 24.003 2.519 10.117 3.768 20.275 3.768 30.392 0 6.39-0.061 11.612-0.205 15.606-0.123 3.994-0.799 9.994-1.987 18.002s-2.785 14.664-4.772 19.988-5.161 11.346-9.523 18.002c-4.362 6.676-9.646 12.063-15.872 16.2s-14.152 7.598-23.798 10.404c-9.667 2.806-20.562 4.198-32.727 4.198-6.881 0-12.82-2.54-17.859-7.598-5.284-5.325-9.789-12.001-13.496-19.988-3.707-8.008-6.287-14.93-7.741-20.808-1.454-5.857-3.113-14.008-4.956-24.412-2.376-11.203-4.157-19.272-5.366-24.207-1.188-4.936-3.523-11.407-6.943-19.395-3.441-8.008-7.537-14.397-12.308-19.21-8.724-8.806-22.077-24.801-40.079-48.005-12.964-17.060-26.317-33.198-40.079-48.415s-23.798-23.081-30.147-23.613c-6.615-0.532-12.288-3.256-17.060-8.192s-7.148-10.732-7.148-17.408v-256.43c0-6.943 2.519-12.861 7.537-17.797s10.977-7.537 17.859-7.803c9.257-0.266 30.147-6.144 62.689-17.613 20.357-6.943 36.291-12.206 47.8-15.79 11.51-3.604 27.566-7.475 48.189-11.612s39.67-6.205 57.119-6.205h51.18c35.185 0.532 61.235 10.936 78.152 31.191 15.34 18.412 21.811 42.537 19.436 72.417 10.301 9.871 17.469 22.405 21.422 37.601 4.485 16.261 4.485 31.867 0 46.797 12.165 16.261 17.859 34.55 17.060 54.804 0.061 8.581-1.925 18.719-5.898 30.454zM344.494 478.72h-114.258c-6.881 0-12.841-2.54-17.859-7.598s-7.537-11.059-7.537-18.002v-256.041c0-6.922 2.519-12.923 7.537-18.002 5.038-5.059 10.977-7.598 17.859-7.598h114.258c6.881 0 12.82 2.54 17.859 7.598 5.038 5.079 7.537 11.080 7.537 18.002v256.041c0 6.943-2.519 12.943-7.537 18.002-5.038 5.059-10.977 7.598-17.859 7.598zM298.865 230.093c-5.018-4.936-10.977-7.393-17.859-7.393-7.148 0-13.169 2.458-18.043 7.393-4.895 4.936-7.332 10.998-7.332 18.207 0 6.943 2.437 12.943 7.332 18.002 4.895 5.079 10.916 7.598 18.043 7.598 6.881 0 12.82-2.54 17.859-7.598s7.537-11.059 7.537-18.002c0-7.209-2.499-13.271-7.537-18.207z" />
<glyph unicode="&#xe60b;" d="M685.609 786.104c-169.8 101.417-389.673 46.162-491.192-123.617-101.499-169.718-46.182-389.673 123.556-491.11 169.82-101.499 389.632-46.121 491.11 123.617 101.499 169.718 46.182 389.489-123.474 491.11zM505.139 480.707l136.765-261.386c-21.688-11.633-44.728-20.582-68.526-26.644-72.765-18.207-151.941-9.093-221.45 31.826l153.047 255.959-298.598 11.94c2.171 47.186 15.503 94.556 41.554 138.097 27.279 45.629 64.963 81.080 108.093 105.452l149.115-255.078 149.668 250.245c68.854-41.984 114.483-107.356 132.792-180.122 5.263-20.931 8.192-42.435 8.745-64.102l-291.205-6.185z" />
<glyph unicode="&#xe60c;" d="M798.72 140.063v657.428c0 22.282-18.309 40.305-40.919 40.305h-149.217c3.604-8.356 5.571-17.551 5.571-27.156 0-38.748-31.969-70.246-71.311-70.246s-71.311 31.478-71.311 70.246c0 9.585 1.966 18.801 5.571 27.156h-61.112v-19.64c0-0.164 0-0.225 0-0.389v-125.932c0-34.12-28.201-61.891-62.833-61.891h-57.651c-0.389-0.082-0.717-0.082-1.106-0.082h-89.6v-489.718c0-22.282 18.289-40.305 40.919-40.305h512.082c22.548-0.082 40.919 18.022 40.919 40.223zM542.761 244.040c0-10.67-8.806-19.333-19.64-19.333h-208.445c-10.834 0-19.64 8.663-19.64 19.333v0.696c0 10.67 8.806 19.333 19.64 19.333h208.445c10.834 0 19.64-8.663 19.64-19.333v-0.696zM542.761 346.296c0-10.67-8.806-19.333-19.64-19.333h-208.445c-10.834 0-19.64 8.663-19.64 19.333v0.696c0 10.67 8.806 19.333 19.64 19.333h208.445c10.834 0 19.64-8.663 19.64-19.333v-0.696zM542.761 448.471c0-10.67-8.806-19.333-19.64-19.333h-208.445c-10.834 0-19.64 8.663-19.64 19.333v0.696c0 10.67 8.806 19.333 19.64 19.333h208.445c10.834 0 19.64-8.663 19.64-19.333v-0.696zM400.671 542.147c-10.834 0-19.64 8.663-19.64 19.333v0.696c0 10.67 8.806 19.333 19.64 19.333h208.445c10.834 0 19.64-8.663 19.64-19.333v-0.696c0-10.67-8.786-19.333-19.64-19.333h-208.445zM714.752 244.040c0-10.67-8.786-19.333-19.64-19.333h-55.46c-10.834 0-19.64 8.663-19.64 19.333v0.696c0 10.67 8.786 19.333 19.64 19.333h55.46c10.834 0 19.64-8.663 19.64-19.333v-0.696zM714.752 346.296c0-10.67-8.786-19.333-19.64-19.333h-55.46c-10.834 0-19.64 8.663-19.64 19.333v0.696c0 10.67 8.786 19.333 19.64 19.333h55.46c10.834 0 19.64-8.663 19.64-19.333v-0.696zM714.752 448.471c0-10.67-8.786-19.333-19.64-19.333h-55.46c-10.834 0-19.64 8.663-19.64 19.333v0.696c0 10.67 8.786 19.333 19.64 19.333h55.46c10.834 0 19.64-8.663 19.64-19.333v-0.696zM353.075 653.087c21.688 0 39.281 17.326 39.281 38.666v125.932c0 11.674-9.667 19.415-19.784 19.415-4.792 0-9.748-1.782-13.742-5.734l-147.497-145.265c-12.329-12.145-3.604-33.034 13.906-33.034l127.836 0.020zM590.5 810.578c0 10.138-3.215 19.497-8.806 27.156-8.622 12.063-22.835 19.866-38.932 19.866s-30.31-7.803-38.953-19.886c-5.509-7.66-8.806-17.019-8.806-27.156 0-25.989 21.361-47.022 47.759-47.022 26.378 0 47.739 21.115 47.739 47.043z" />
</font></defs></svg>